TMS470 Assembler Unix v4.9.5 Mon Feb 17 16:58:44 2014

Tools Copyright (c) 1996-2012 Texas Instruments Incorporated
utils/src/utils_reg_dump_asm_m3.s                                    PAGE    1

       1                    ; Get reference to the program's normal entry point and the AMMU_init func.
       2                    ;
       3                              .cdecls C,NOLIST,"xdc/std.h","mcfw/interfaces/common_def/ti_vsys_common_def.h"
       4 00000000                     .thumb
       5                    
       6          00000010  r0_offset:    .equ VSYS_SLAVE_CORE_EXCEPTION_CONTEXT_M3_S.r0
       7          00000014  r1_offset:    .equ VSYS_SLAVE_CORE_EXCEPTION_CONTEXT_M3_S.r1
       8          00000018  r2_offset:    .equ VSYS_SLAVE_CORE_EXCEPTION_CONTEXT_M3_S.r2
       9          0000001C  r3_offset:    .equ VSYS_SLAVE_CORE_EXCEPTION_CONTEXT_M3_S.r3
      10          00000020  r4_offset:    .equ VSYS_SLAVE_CORE_EXCEPTION_CONTEXT_M3_S.r4
      11          00000024  r5_offset:    .equ VSYS_SLAVE_CORE_EXCEPTION_CONTEXT_M3_S.r5
      12          00000028  r6_offset:    .equ VSYS_SLAVE_CORE_EXCEPTION_CONTEXT_M3_S.r6
      13          0000002C  r7_offset:    .equ VSYS_SLAVE_CORE_EXCEPTION_CONTEXT_M3_S.r7
      14          00000030  r8_offset:    .equ VSYS_SLAVE_CORE_EXCEPTION_CONTEXT_M3_S.r8
      15          00000034  r9_offset:    .equ VSYS_SLAVE_CORE_EXCEPTION_CONTEXT_M3_S.r9
      16          00000038  r10_offset:   .equ VSYS_SLAVE_CORE_EXCEPTION_CONTEXT_M3_S.r10
      17          0000003C  r11_offset:   .equ VSYS_SLAVE_CORE_EXCEPTION_CONTEXT_M3_S.r11
      18          00000040  r12_offset:   .equ VSYS_SLAVE_CORE_EXCEPTION_CONTEXT_M3_S.r12
      19          00000044  sp_offset:    .equ VSYS_SLAVE_CORE_EXCEPTION_CONTEXT_M3_S.sp
      20          00000048  lr_offset:    .equ VSYS_SLAVE_CORE_EXCEPTION_CONTEXT_M3_S.lr
      21          0000004C  pc_offset:    .equ VSYS_SLAVE_CORE_EXCEPTION_CONTEXT_M3_S.pc
      22          00000050  psr_offset:   .equ VSYS_SLAVE_CORE_EXCEPTION_CONTEXT_M3_S.psr
      23          00000054  ICSR_offset:  .equ VSYS_SLAVE_CORE_EXCEPTION_CONTEXT_M3_S.ICSR
      24          00000058  MMFSR_offset: .equ VSYS_SLAVE_CORE_EXCEPTION_CONTEXT_M3_S.MMFSR
      25          0000005C  BFSR_offset:  .equ VSYS_SLAVE_CORE_EXCEPTION_CONTEXT_M3_S.BFSR
      26          00000060  UFSR_offset:  .equ VSYS_SLAVE_CORE_EXCEPTION_CONTEXT_M3_S.UFSR
      27          00000064  HFSR_offset:  .equ VSYS_SLAVE_CORE_EXCEPTION_CONTEXT_M3_S.HFSR
      28          00000068  DFSR_offset:  .equ VSYS_SLAVE_CORE_EXCEPTION_CONTEXT_M3_S.DFSR
      29          0000006C  MMAR_offset:  .equ VSYS_SLAVE_CORE_EXCEPTION_CONTEXT_M3_S.MMAR
      30          00000070  BFAR_offset:  .equ VSYS_SLAVE_CORE_EXCEPTION_CONTEXT_M3_S.BFAR
      31          00000074  AFSR_offset:  .equ VSYS_SLAVE_CORE_EXCEPTION_CONTEXT_M3_S.AFSR
      32                    
      33                    
      34                    ; Put these in symbol table so debugger can list them.
      35                    ;
      36                            .global utils_exception_asm_copy_regs
      37                    
      38                    ; This function is used to dump all register values into passed structure.
      39                    ;
      40 00000000                   .sect ".text:utils_exception_asm_copy_regs"     ; place this function in boot segment
      41                            .clink
      42                    
      43 00000000           utils_exception_asm_copy_regs:
      44                            .asmfunc
      45 00000000 6100              STR   r0,[r0,#r0_offset] ; [ORIG 16-BIT INS]
      46 00000002 6141              STR   r1,[r0,#r1_offset] ; [ORIG 16-BIT INS]
      47 00000004 6182              STR   r2,[r0,#r2_offset] ; [ORIG 16-BIT INS]
      48 00000006 61C3              STR   r3,[r0,#r3_offset] ; [ORIG 16-BIT INS]
      49 00000008 6204              STR   r4,[r0,#r4_offset] ; [ORIG 16-BIT INS]
      50 0000000a 6245              STR   r5,[r0,#r5_offset] ; [ORIG 16-BIT INS]
      51 0000000c 6286              STR   r6,[r0,#r6_offset] ; [ORIG 16-BIT INS]
      52 0000000e 62C7              STR   r7,[r0,#r7_offset] ; [ORIG 16-BIT INS]
      53 00000010 8030F8C0          STR   r8,[r0,#r8_offset] ; [KEEP 32-BIT INS]
      54 00000014 9034F8C0          STR   r9,[r0,#r9_offset] ; [KEEP 32-BIT INS]
      55 00000018 A038F8C0          STR   r10,[r0,#r10_offset] ; [KEEP 32-BIT INS]
TMS470 Assembler Unix v4.9.5 Mon Feb 17 16:58:44 2014

Tools Copyright (c) 1996-2012 Texas Instruments Incorporated
utils/src/utils_reg_dump_asm_m3.s                                    PAGE    2

      56 0000001c B03CF8C0          STR   r11,[r0,#r11_offset] ; [KEEP 32-BIT INS]
      57 00000020 C040F8C0          STR   r12,[r0,#r12_offset] ; [KEEP 32-BIT INS]
      58 00000024 D044F8C0          STR   sp,[r0,#sp_offset] ; [KEEP 32-BIT INS]
      59 00000028 E048F8C0          STR   lr,[r0,#lr_offset] ; [KEEP 32-BIT INS]
      60 0000002c 4901              LDR   r1,utils_exception_asm_copy_regs_addr ; [ORIG 16-BIT INS]
      61 0000002e 64C1              STR   r1,[r0,#pc_offset] ; [ORIG 16-BIT INS]
      62 00000030 4770              BX    lr ; [ORIG 16-BIT INS]
      63                            .endasmfunc
      64                    
      65 00000034 00000000! utils_exception_asm_copy_regs_addr .word utils_exception_asm_copy_regs
      66                            .end

--------------------------
Thumb2 Statistics
--------------------------
Number of Thumb2 ins converted to Thumb = 0 (0%)
Number of Thumb ins in input = 18 (72%)
Number of Thumb2 ins encoded as Thumb2 = 7 (100%)
Number of Thumb2 ins converted to 2 OPND Thumb = 9


No Assembly Errors, No Assembly Warnings
